ISO-10303-21;
HEADER;
/* Generated by software containing ST-Developer
 * from STEP Tools, Inc. (www.steptools.com) 
 */
/* OPTION: using custom schema-name function */

FILE_DESCRIPTION(
/* description */ (''),
/* implementation_level */ '2;1');

FILE_NAME(
/* name */ 'tige excentreuse',
/* time_stamp */ '2020-03-04T03:04:41+01:00',
/* author */ (''),
/* organization */ (''),
/* preprocessor_version */ 'ST-DEVELOPER v16.5',
/* originating_system */ '',
/* authorisation */ '');

FILE_SCHEMA (('AUTOMOTIVE_DESIGN'));
ENDSEC;

DATA;
#10=SHAPE_REPRESENTATION_RELATIONSHIP('','',#190,#22);
#11=COLOUR_RGB('',1.,0.,0.);
#12=FILL_AREA_STYLE_COLOUR('',#11);
#13=FILL_AREA_STYLE('',(#12));
#14=SURFACE_STYLE_FILL_AREA(#13);
#15=SURFACE_SIDE_STYLE('',(#14));
#16=SURFACE_STYLE_USAGE(.BOTH.,#15);
#17=MECHANICAL_DESIGN_GEOMETRIC_PRESENTATION_REPRESENTATION('',(#19),#189);
#18=PRESENTATION_STYLE_ASSIGNMENT((#16));
#19=STYLED_ITEM('',(#18),#21);
#20=PRESENTATION_LAYER_ASSIGNMENT('Calque 01','',(#21));
#21=MANIFOLD_SOLID_BREP('brep_1',#23);
#22=ADVANCED_BREP_SHAPE_REPRESENTATION('brep_rep_0',(#21,#194),#189);
#23=CLOSED_SHELL('',(#24,#25,#26,#27,#28,#29,#30,#31,#32,#33,#34,#35));
#24=ADVANCED_FACE('',(#36),#162,.T.);
#25=ADVANCED_FACE('',(#37),#163,.T.);
#26=ADVANCED_FACE('',(#38),#164,.T.);
#27=ADVANCED_FACE('',(#39),#165,.T.);
#28=ADVANCED_FACE('',(#40),#166,.T.);
#29=ADVANCED_FACE('',(#41),#160,.T.);
#30=ADVANCED_FACE('',(#42),#161,.T.);
#31=ADVANCED_FACE('',(#43),#167,.T.);
#32=ADVANCED_FACE('',(#44),#168,.T.);
#33=ADVANCED_FACE('',(#45),#169,.T.);
#34=ADVANCED_FACE('',(#46),#170,.T.);
#35=ADVANCED_FACE('',(#47),#171,.T.);
#36=FACE_OUTER_BOUND('',#48,.T.);
#37=FACE_OUTER_BOUND('',#49,.T.);
#38=FACE_OUTER_BOUND('',#50,.T.);
#39=FACE_OUTER_BOUND('',#51,.T.);
#40=FACE_OUTER_BOUND('',#52,.T.);
#41=FACE_OUTER_BOUND('',#53,.T.);
#42=FACE_OUTER_BOUND('',#54,.T.);
#43=FACE_OUTER_BOUND('',#55,.T.);
#44=FACE_OUTER_BOUND('',#56,.T.);
#45=FACE_OUTER_BOUND('',#57,.T.);
#46=FACE_OUTER_BOUND('',#58,.T.);
#47=FACE_OUTER_BOUND('',#59,.T.);
#48=EDGE_LOOP('',(#60,#61,#62,#63));
#49=EDGE_LOOP('',(#64,#65,#66,#67));
#50=EDGE_LOOP('',(#68,#69,#70,#71));
#51=EDGE_LOOP('',(#72,#73,#74,#75));
#52=EDGE_LOOP('',(#76,#77,#78,#79));
#53=EDGE_LOOP('',(#80,#81));
#54=EDGE_LOOP('',(#82,#83));
#55=EDGE_LOOP('',(#84,#85,#86,#87));
#56=EDGE_LOOP('',(#88,#89,#90,#91));
#57=EDGE_LOOP('',(#92,#93,#94,#95));
#58=EDGE_LOOP('',(#96,#97,#98,#99));
#59=EDGE_LOOP('',(#100,#101,#102,#103));
#60=ORIENTED_EDGE('',*,*,#115,.T.);
#61=ORIENTED_EDGE('',*,*,#116,.T.);
#62=ORIENTED_EDGE('',*,*,#104,.F.);
#63=ORIENTED_EDGE('',*,*,#106,.T.);
#64=ORIENTED_EDGE('',*,*,#118,.T.);
#65=ORIENTED_EDGE('',*,*,#119,.T.);
#66=ORIENTED_EDGE('',*,*,#107,.F.);
#67=ORIENTED_EDGE('',*,*,#116,.F.);
#68=ORIENTED_EDGE('',*,*,#120,.T.);
#69=ORIENTED_EDGE('',*,*,#121,.T.);
#70=ORIENTED_EDGE('',*,*,#109,.F.);
#71=ORIENTED_EDGE('',*,*,#119,.F.);
#72=ORIENTED_EDGE('',*,*,#122,.T.);
#73=ORIENTED_EDGE('',*,*,#123,.T.);
#74=ORIENTED_EDGE('',*,*,#111,.F.);
#75=ORIENTED_EDGE('',*,*,#121,.F.);
#76=ORIENTED_EDGE('',*,*,#124,.T.);
#77=ORIENTED_EDGE('',*,*,#125,.T.);
#78=ORIENTED_EDGE('',*,*,#113,.F.);
#79=ORIENTED_EDGE('',*,*,#123,.F.);
#80=ORIENTED_EDGE('',*,*,#117,.F.);
#81=ORIENTED_EDGE('',*,*,#106,.F.);
#82=ORIENTED_EDGE('',*,*,#125,.F.);
#83=ORIENTED_EDGE('',*,*,#114,.F.);
#84=ORIENTED_EDGE('',*,*,#117,.T.);
#85=ORIENTED_EDGE('',*,*,#104,.T.);
#86=ORIENTED_EDGE('',*,*,#105,.T.);
#87=ORIENTED_EDGE('',*,*,#115,.F.);
#88=ORIENTED_EDGE('',*,*,#105,.F.);
#89=ORIENTED_EDGE('',*,*,#107,.T.);
#90=ORIENTED_EDGE('',*,*,#108,.T.);
#91=ORIENTED_EDGE('',*,*,#118,.F.);
#92=ORIENTED_EDGE('',*,*,#108,.F.);
#93=ORIENTED_EDGE('',*,*,#109,.T.);
#94=ORIENTED_EDGE('',*,*,#110,.T.);
#95=ORIENTED_EDGE('',*,*,#120,.F.);
#96=ORIENTED_EDGE('',*,*,#110,.F.);
#97=ORIENTED_EDGE('',*,*,#111,.T.);
#98=ORIENTED_EDGE('',*,*,#112,.T.);
#99=ORIENTED_EDGE('',*,*,#122,.F.);
#100=ORIENTED_EDGE('',*,*,#112,.F.);
#101=ORIENTED_EDGE('',*,*,#113,.T.);
#102=ORIENTED_EDGE('',*,*,#114,.T.);
#103=ORIENTED_EDGE('',*,*,#124,.F.);
#104=EDGE_CURVE('',#148,#149,#127,.T.);
#105=EDGE_CURVE('',#149,#155,#128,.T.);
#106=EDGE_CURVE('',#148,#154,#129,.T.);
#107=EDGE_CURVE('',#149,#150,#130,.T.);
#108=EDGE_CURVE('',#150,#156,#131,.T.);
#109=EDGE_CURVE('',#150,#151,#126,.T.);
#110=EDGE_CURVE('',#151,#157,#132,.T.);
#111=EDGE_CURVE('',#151,#152,#133,.T.);
#112=EDGE_CURVE('',#152,#158,#134,.T.);
#113=EDGE_CURVE('',#152,#153,#135,.T.);
#114=EDGE_CURVE('',#153,#159,#136,.T.);
#115=EDGE_CURVE('',#154,#155,#137,.T.);
#116=EDGE_CURVE('',#155,#149,#138,.T.);
#117=EDGE_CURVE('',#154,#148,#139,.T.);
#118=EDGE_CURVE('',#155,#156,#140,.T.);
#119=EDGE_CURVE('',#156,#150,#141,.T.);
#120=EDGE_CURVE('',#156,#157,#142,.T.);
#121=EDGE_CURVE('',#157,#151,#143,.T.);
#122=EDGE_CURVE('',#157,#158,#144,.T.);
#123=EDGE_CURVE('',#158,#152,#145,.T.);
#124=EDGE_CURVE('',#158,#159,#146,.T.);
#125=EDGE_CURVE('',#159,#153,#147,.T.);
#126=B_SPLINE_CURVE_WITH_KNOTS('',1,(#571,#572),.UNSPECIFIED.,.F.,.F.,(2,
2),(0.,22.),.UNSPECIFIED.);
#127=(
BOUNDED_CURVE()
B_SPLINE_CURVE(3,(#536,#537,#538,#539,#540,#541,#542),.UNSPECIFIED.,.F.,
 .F.)
B_SPLINE_CURVE_WITH_KNOTS((4,1,1,1,4),(0.,16.9996142523306,19.9997428348871,
22.9998714174435,26.),.UNSPECIFIED.)
CURVE()
GEOMETRIC_REPRESENTATION_ITEM()
RATIONAL_B_SPLINE_CURVE((1.,1.,1.,1.,1.,1.,1.))
REPRESENTATION_ITEM('')
);
#128=(
BOUNDED_CURVE()
B_SPLINE_CURVE(2,(#543,#544,#545,#546,#547),.UNSPECIFIED.,.F.,.F.)
B_SPLINE_CURVE_WITH_KNOTS((3,2,3),(0.,7.85398163397448,15.707963267949),
 .UNSPECIFIED.)
CURVE()
GEOMETRIC_REPRESENTATION_ITEM()
RATIONAL_B_SPLINE_CURVE((1.,0.707106781186548,1.,0.707106781186548,1.))
REPRESENTATION_ITEM('')
);
#129=(
BOUNDED_CURVE()
B_SPLINE_CURVE(2,(#548,#549,#550,#551,#552),.UNSPECIFIED.,.F.,.F.)
B_SPLINE_CURVE_WITH_KNOTS((3,2,3),(-31.4159265358979,-23.5619449019234,
-15.707963267949),.UNSPECIFIED.)
CURVE()
GEOMETRIC_REPRESENTATION_ITEM()
RATIONAL_B_SPLINE_CURVE((1.,0.707106781186548,1.,0.707106781186548,1.))
REPRESENTATION_ITEM('')
);
#130=(
BOUNDED_CURVE()
B_SPLINE_CURVE(3,(#553,#554,#555,#556,#557,#558,#559,#560,#561,#562,#563,
#564,#565),.UNSPECIFIED.,.F.,.F.)
B_SPLINE_CURVE_WITH_KNOTS((4,3,3,3,4),(0.,1.50783389919244,3.14158769282533,
4.7753414864582,6.28317538565064),.UNSPECIFIED.)
CURVE()
GEOMETRIC_REPRESENTATION_ITEM()
RATIONAL_B_SPLINE_CURVE((1.,1.,1.,1.,1.,1.,1.,1.,1.,1.,1.,1.,1.))
REPRESENTATION_ITEM('')
);
#131=(
BOUNDED_CURVE()
B_SPLINE_CURVE(2,(#566,#567,#568,#569,#570),.UNSPECIFIED.,.F.,.F.)
B_SPLINE_CURVE_WITH_KNOTS((3,2,3),(0.,7.85398163397448,15.707963267949),
 .UNSPECIFIED.)
CURVE()
GEOMETRIC_REPRESENTATION_ITEM()
RATIONAL_B_SPLINE_CURVE((1.,0.707106781186548,1.,0.707106781186548,1.))
REPRESENTATION_ITEM('')
);
#132=(
BOUNDED_CURVE()
B_SPLINE_CURVE(2,(#573,#574,#575,#576,#577),.UNSPECIFIED.,.F.,.F.)
B_SPLINE_CURVE_WITH_KNOTS((3,2,3),(0.,7.85398163397448,15.707963267949),
 .UNSPECIFIED.)
CURVE()
GEOMETRIC_REPRESENTATION_ITEM()
RATIONAL_B_SPLINE_CURVE((1.,0.707106781186548,1.,0.707106781186548,1.))
REPRESENTATION_ITEM('')
);
#133=(
BOUNDED_CURVE()
B_SPLINE_CURVE(3,(#578,#579,#580,#581,#582,#583,#584),.UNSPECIFIED.,.F.,
 .F.)
B_SPLINE_CURVE_WITH_KNOTS((4,1,1,1,4),(0.,1.50783389919249,3.14158769282543,
4.77534148645832,6.28317538565074),.UNSPECIFIED.)
CURVE()
GEOMETRIC_REPRESENTATION_ITEM()
RATIONAL_B_SPLINE_CURVE((1.,0.999999999999999,1.,1.,1.,1.,1.))
REPRESENTATION_ITEM('')
);
#134=(
BOUNDED_CURVE()
B_SPLINE_CURVE(2,(#585,#586,#587,#588,#589),.UNSPECIFIED.,.F.,.F.)
B_SPLINE_CURVE_WITH_KNOTS((3,2,3),(0.,7.85398163397448,15.707963267949),
 .UNSPECIFIED.)
CURVE()
GEOMETRIC_REPRESENTATION_ITEM()
RATIONAL_B_SPLINE_CURVE((1.,0.707106781186548,1.,0.707106781186548,1.))
REPRESENTATION_ITEM('')
);
#135=(
BOUNDED_CURVE()
B_SPLINE_CURVE(3,(#590,#591,#592,#593,#594,#595,#596),.UNSPECIFIED.,.F.,
 .F.)
B_SPLINE_CURVE_WITH_KNOTS((4,1,1,1,4),(0.,2.99980333300984,5.99960666601967,
8.99940999902951,26.),.UNSPECIFIED.)
CURVE()
GEOMETRIC_REPRESENTATION_ITEM()
RATIONAL_B_SPLINE_CURVE((1.,1.,1.,1.,1.,0.999999999999999,1.))
REPRESENTATION_ITEM('')
);
#136=(
BOUNDED_CURVE()
B_SPLINE_CURVE(2,(#597,#598,#599,#600,#601),.UNSPECIFIED.,.F.,.F.)
B_SPLINE_CURVE_WITH_KNOTS((3,2,3),(0.,7.85398163397448,15.707963267949),
 .UNSPECIFIED.)
CURVE()
GEOMETRIC_REPRESENTATION_ITEM()
RATIONAL_B_SPLINE_CURVE((1.,0.707106781186548,1.,0.707106781186548,1.))
REPRESENTATION_ITEM('')
);
#137=(
BOUNDED_CURVE()
B_SPLINE_CURVE(3,(#602,#603,#604,#605,#606,#607,#608),.UNSPECIFIED.,.F.,
 .F.)
B_SPLINE_CURVE_WITH_KNOTS((4,1,1,1,4),(0.,16.9996142523306,19.9997428348871,
22.9998714174435,26.),.UNSPECIFIED.)
CURVE()
GEOMETRIC_REPRESENTATION_ITEM()
RATIONAL_B_SPLINE_CURVE((1.,1.,1.,1.,1.,1.,1.))
REPRESENTATION_ITEM('')
);
#138=(
BOUNDED_CURVE()
B_SPLINE_CURVE(2,(#609,#610,#611,#612,#613),.UNSPECIFIED.,.F.,.F.)
B_SPLINE_CURVE_WITH_KNOTS((3,2,3),(15.707963267949,23.5619449019234,31.4159265358979),
 .UNSPECIFIED.)
CURVE()
GEOMETRIC_REPRESENTATION_ITEM()
RATIONAL_B_SPLINE_CURVE((1.,0.707106781186548,1.,0.707106781186548,1.))
REPRESENTATION_ITEM('')
);
#139=(
BOUNDED_CURVE()
B_SPLINE_CURVE(2,(#614,#615,#616,#617,#618),.UNSPECIFIED.,.F.,.F.)
B_SPLINE_CURVE_WITH_KNOTS((3,2,3),(-15.707963267949,-7.85398163397448,0.),
 .UNSPECIFIED.)
CURVE()
GEOMETRIC_REPRESENTATION_ITEM()
RATIONAL_B_SPLINE_CURVE((1.,0.707106781186548,1.,0.707106781186548,1.))
REPRESENTATION_ITEM('')
);
#140=(
BOUNDED_CURVE()
B_SPLINE_CURVE(3,(#619,#620,#621,#622,#623,#624,#625,#626,#627,#628,#629,
#630,#631),.UNSPECIFIED.,.F.,.F.)
B_SPLINE_CURVE_WITH_KNOTS((4,3,3,3,4),(0.,1.50783389919244,3.14158769282533,
4.7753414864582,6.28317538565064),.UNSPECIFIED.)
CURVE()
GEOMETRIC_REPRESENTATION_ITEM()
RATIONAL_B_SPLINE_CURVE((1.,1.,1.,1.,1.,1.,1.,1.,1.,1.,1.,1.,1.))
REPRESENTATION_ITEM('')
);
#141=(
BOUNDED_CURVE()
B_SPLINE_CURVE(2,(#632,#633,#634,#635,#636),.UNSPECIFIED.,.F.,.F.)
B_SPLINE_CURVE_WITH_KNOTS((3,2,3),(15.707963267949,23.5619449019234,31.4159265358979),
 .UNSPECIFIED.)
CURVE()
GEOMETRIC_REPRESENTATION_ITEM()
RATIONAL_B_SPLINE_CURVE((1.,0.707106781186548,1.,0.707106781186548,1.))
REPRESENTATION_ITEM('')
);
#142=(
BOUNDED_CURVE()
B_SPLINE_CURVE(3,(#637,#638,#639,#640),.UNSPECIFIED.,.F.,.F.)
B_SPLINE_CURVE_WITH_KNOTS((4,4),(0.,22.),.UNSPECIFIED.)
CURVE()
GEOMETRIC_REPRESENTATION_ITEM()
RATIONAL_B_SPLINE_CURVE((1.,1.,1.,1.))
REPRESENTATION_ITEM('')
);
#143=(
BOUNDED_CURVE()
B_SPLINE_CURVE(2,(#641,#642,#643,#644,#645),.UNSPECIFIED.,.F.,.F.)
B_SPLINE_CURVE_WITH_KNOTS((3,2,3),(15.707963267949,23.5619449019234,31.4159265358979),
 .UNSPECIFIED.)
CURVE()
GEOMETRIC_REPRESENTATION_ITEM()
RATIONAL_B_SPLINE_CURVE((1.,0.707106781186548,1.,0.707106781186548,1.))
REPRESENTATION_ITEM('')
);
#144=(
BOUNDED_CURVE()
B_SPLINE_CURVE(3,(#646,#647,#648,#649,#650,#651,#652),.UNSPECIFIED.,.F.,
 .F.)
B_SPLINE_CURVE_WITH_KNOTS((4,1,1,1,4),(0.,1.50783389919249,3.14158769282543,
4.77534148645832,6.28317538565074),.UNSPECIFIED.)
CURVE()
GEOMETRIC_REPRESENTATION_ITEM()
RATIONAL_B_SPLINE_CURVE((1.,0.999999999999999,1.,1.,1.,1.,1.))
REPRESENTATION_ITEM('')
);
#145=(
BOUNDED_CURVE()
B_SPLINE_CURVE(2,(#653,#654,#655,#656,#657),.UNSPECIFIED.,.F.,.F.)
B_SPLINE_CURVE_WITH_KNOTS((3,2,3),(15.707963267949,23.5619449019234,31.4159265358979),
 .UNSPECIFIED.)
CURVE()
GEOMETRIC_REPRESENTATION_ITEM()
RATIONAL_B_SPLINE_CURVE((1.,0.707106781186548,1.,0.707106781186548,1.))
REPRESENTATION_ITEM('')
);
#146=(
BOUNDED_CURVE()
B_SPLINE_CURVE(3,(#658,#659,#660,#661,#662,#663,#664),.UNSPECIFIED.,.F.,
 .F.)
B_SPLINE_CURVE_WITH_KNOTS((4,1,1,1,4),(0.,2.99980333300984,5.99960666601967,
8.99940999902951,26.),.UNSPECIFIED.)
CURVE()
GEOMETRIC_REPRESENTATION_ITEM()
RATIONAL_B_SPLINE_CURVE((1.,1.,1.,1.,1.,0.999999999999999,1.))
REPRESENTATION_ITEM('')
);
#147=(
BOUNDED_CURVE()
B_SPLINE_CURVE(2,(#665,#666,#667,#668,#669),.UNSPECIFIED.,.F.,.F.)
B_SPLINE_CURVE_WITH_KNOTS((3,2,3),(15.707963267949,23.5619449019234,31.4159265358979),
 .UNSPECIFIED.)
CURVE()
GEOMETRIC_REPRESENTATION_ITEM()
RATIONAL_B_SPLINE_CURVE((1.,0.707106781186548,1.,0.707106781186548,1.))
REPRESENTATION_ITEM('')
);
#148=VERTEX_POINT('',#524);
#149=VERTEX_POINT('',#525);
#150=VERTEX_POINT('',#526);
#151=VERTEX_POINT('',#527);
#152=VERTEX_POINT('',#528);
#153=VERTEX_POINT('',#529);
#154=VERTEX_POINT('',#530);
#155=VERTEX_POINT('',#531);
#156=VERTEX_POINT('',#532);
#157=VERTEX_POINT('',#533);
#158=VERTEX_POINT('',#534);
#159=VERTEX_POINT('',#535);
#160=PLANE('',#192);
#161=PLANE('',#193);
#162=(
BOUNDED_SURFACE()
B_SPLINE_SURFACE(3,2,((#202,#203,#204,#205,#206),(#207,#208,#209,#210,#211),
(#212,#213,#214,#215,#216),(#217,#218,#219,#220,#221),(#222,#223,#224,#225,
#226),(#227,#228,#229,#230,#231),(#232,#233,#234,#235,#236)),
 .UNSPECIFIED.,.F.,.F.,.F.)
B_SPLINE_SURFACE_WITH_KNOTS((4,1,1,1,4),(3,2,3),(0.,16.9996142523306,19.9997428348871,
22.9998714174435,26.),(15.707963267949,23.5619449019234,31.4159265358979),
 .UNSPECIFIED.)
GEOMETRIC_REPRESENTATION_ITEM()
RATIONAL_B_SPLINE_SURFACE(((1.,0.707106781186548,1.,0.707106781186548,1.),
(1.,0.707106781186548,1.,0.707106781186548,1.),(1.,0.707106781186547,1.,
0.707106781186547,1.),(1.,0.707106781186548,1.,0.707106781186548,1.),(1.,
0.707106781186547,1.,0.707106781186547,1.),(1.,0.707106781186547,1.,0.707106781186547,
1.),(1.,0.707106781186548,1.,0.707106781186548,1.)))
REPRESENTATION_ITEM('')
SURFACE()
);
#163=(
BOUNDED_SURFACE()
B_SPLINE_SURFACE(3,2,((#237,#238,#239,#240,#241),(#242,#243,#244,#245,#246),
(#247,#248,#249,#250,#251),(#252,#253,#254,#255,#256),(#257,#258,#259,#260,
#261),(#262,#263,#264,#265,#266),(#267,#268,#269,#270,#271)),
 .UNSPECIFIED.,.F.,.F.,.F.)
B_SPLINE_SURFACE_WITH_KNOTS((4,1,1,1,4),(3,2,3),(0.,1.50783389919244,3.14158769282533,
4.7753414864582,6.28317538565064),(15.707963267949,23.5619449019234,31.4159265358979),
 .UNSPECIFIED.)
GEOMETRIC_REPRESENTATION_ITEM()
RATIONAL_B_SPLINE_SURFACE(((1.,0.707106781186548,1.,0.707106781186548,1.),
(1.,0.707106781186548,1.,0.707106781186548,1.),(0.999999999999999,0.707106781186547,
0.999999999999999,0.707106781186547,0.999999999999999),(1.,0.707106781186548,
1.,0.707106781186548,1.),(0.999999999999999,0.707106781186547,0.999999999999999,
0.707106781186547,0.999999999999999),(1.,0.707106781186548,1.,0.707106781186548,
1.),(1.,0.707106781186548,1.,0.707106781186548,1.)))
REPRESENTATION_ITEM('')
SURFACE()
);
#164=(
BOUNDED_SURFACE()
B_SPLINE_SURFACE(3,2,((#272,#273,#274,#275,#276),(#277,#278,#279,#280,#281),
(#282,#283,#284,#285,#286),(#287,#288,#289,#290,#291)),.UNSPECIFIED.,.F.,
 .F.,.F.)
B_SPLINE_SURFACE_WITH_KNOTS((4,4),(3,2,3),(0.,22.),(15.707963267949,23.5619449019234,
31.4159265358979),.UNSPECIFIED.)
GEOMETRIC_REPRESENTATION_ITEM()
RATIONAL_B_SPLINE_SURFACE(((1.,0.707106781186548,1.,0.707106781186548,1.),
(1.,0.707106781186547,1.,0.707106781186547,1.),(1.,0.707106781186548,1.,
0.707106781186548,1.),(1.,0.707106781186548,1.,0.707106781186548,1.)))
REPRESENTATION_ITEM('')
SURFACE()
);
#165=(
BOUNDED_SURFACE()
B_SPLINE_SURFACE(3,2,((#292,#293,#294,#295,#296),(#297,#298,#299,#300,#301),
(#302,#303,#304,#305,#306),(#307,#308,#309,#310,#311),(#312,#313,#314,#315,
#316),(#317,#318,#319,#320,#321),(#322,#323,#324,#325,#326)),
 .UNSPECIFIED.,.F.,.F.,.F.)
B_SPLINE_SURFACE_WITH_KNOTS((4,1,1,1,4),(3,2,3),(0.,1.50783389919249,3.14158769282543,
4.77534148645832,6.28317538565074),(15.707963267949,23.5619449019234,31.4159265358979),
 .UNSPECIFIED.)
GEOMETRIC_REPRESENTATION_ITEM()
RATIONAL_B_SPLINE_SURFACE(((1.,0.707106781186548,1.,0.707106781186548,1.),
(0.999999999999999,0.707106781186547,0.999999999999999,0.707106781186547,
0.999999999999999),(1.,0.707106781186548,1.,0.707106781186548,1.),(1.,0.707106781186547,
1.,0.707106781186547,1.),(1.,0.707106781186548,1.,0.707106781186548,1.),
(1.,0.707106781186548,1.,0.707106781186548,1.),(1.,0.707106781186548,1.,
0.707106781186548,1.)))
REPRESENTATION_ITEM('')
SURFACE()
);
#166=(
BOUNDED_SURFACE()
B_SPLINE_SURFACE(3,2,((#327,#328,#329,#330,#331),(#332,#333,#334,#335,#336),
(#337,#338,#339,#340,#341),(#342,#343,#344,#345,#346),(#347,#348,#349,#350,
#351),(#352,#353,#354,#355,#356),(#357,#358,#359,#360,#361)),
 .UNSPECIFIED.,.F.,.F.,.F.)
B_SPLINE_SURFACE_WITH_KNOTS((4,1,1,1,4),(3,2,3),(0.,2.99980333300984,5.99960666601967,
8.99940999902951,26.),(15.707963267949,23.5619449019234,31.4159265358979),
 .UNSPECIFIED.)
GEOMETRIC_REPRESENTATION_ITEM()
RATIONAL_B_SPLINE_SURFACE(((1.,0.707106781186548,1.,0.707106781186548,1.),
(1.,0.707106781186547,1.,0.707106781186547,1.),(1.,0.707106781186548,1.,
0.707106781186548,1.),(1.,0.707106781186548,1.,0.707106781186548,1.),(1.,
0.707106781186548,1.,0.707106781186548,1.),(0.999999999999999,0.707106781186547,
0.999999999999999,0.707106781186547,0.999999999999999),(1.,0.707106781186548,
1.,0.707106781186548,1.)))
REPRESENTATION_ITEM('')
SURFACE()
);
#167=(
BOUNDED_SURFACE()
B_SPLINE_SURFACE(3,2,((#364,#365,#366,#367,#368),(#369,#370,#371,#372,#373),
(#374,#375,#376,#377,#378),(#379,#380,#381,#382,#383),(#384,#385,#386,#387,
#388),(#389,#390,#391,#392,#393),(#394,#395,#396,#397,#398)),
 .UNSPECIFIED.,.F.,.F.,.F.)
B_SPLINE_SURFACE_WITH_KNOTS((4,1,1,1,4),(3,2,3),(0.,16.9996142523306,19.9997428348871,
22.9998714174435,26.),(0.,7.85398163397448,15.707963267949),
 .UNSPECIFIED.)
GEOMETRIC_REPRESENTATION_ITEM()
RATIONAL_B_SPLINE_SURFACE(((1.,0.707106781186548,1.,0.707106781186548,1.),
(1.,0.707106781186548,1.,0.707106781186548,1.),(1.,0.707106781186547,1.,
0.707106781186547,1.),(1.,0.707106781186548,1.,0.707106781186548,1.),(1.,
0.707106781186547,1.,0.707106781186547,1.),(1.,0.707106781186547,1.,0.707106781186547,
1.),(1.,0.707106781186548,1.,0.707106781186548,1.)))
REPRESENTATION_ITEM('')
SURFACE()
);
#168=(
BOUNDED_SURFACE()
B_SPLINE_SURFACE(3,2,((#399,#400,#401,#402,#403),(#404,#405,#406,#407,#408),
(#409,#410,#411,#412,#413),(#414,#415,#416,#417,#418),(#419,#420,#421,#422,
#423),(#424,#425,#426,#427,#428),(#429,#430,#431,#432,#433)),
 .UNSPECIFIED.,.F.,.F.,.F.)
B_SPLINE_SURFACE_WITH_KNOTS((4,1,1,1,4),(3,2,3),(0.,1.50783389919244,3.14158769282533,
4.7753414864582,6.28317538565064),(0.,7.85398163397448,15.707963267949),
 .UNSPECIFIED.)
GEOMETRIC_REPRESENTATION_ITEM()
RATIONAL_B_SPLINE_SURFACE(((1.,0.707106781186548,1.,0.707106781186548,1.),
(1.,0.707106781186548,1.,0.707106781186548,1.),(0.999999999999999,0.707106781186547,
0.999999999999999,0.707106781186547,0.999999999999999),(1.,0.707106781186548,
1.,0.707106781186548,1.),(0.999999999999999,0.707106781186547,0.999999999999999,
0.707106781186547,0.999999999999999),(1.,0.707106781186548,1.,0.707106781186548,
1.),(1.,0.707106781186548,1.,0.707106781186548,1.)))
REPRESENTATION_ITEM('')
SURFACE()
);
#169=(
BOUNDED_SURFACE()
B_SPLINE_SURFACE(3,2,((#434,#435,#436,#437,#438),(#439,#440,#441,#442,#443),
(#444,#445,#446,#447,#448),(#449,#450,#451,#452,#453)),.UNSPECIFIED.,.F.,
 .F.,.F.)
B_SPLINE_SURFACE_WITH_KNOTS((4,4),(3,2,3),(0.,22.),(0.,7.85398163397448,
15.707963267949),.UNSPECIFIED.)
GEOMETRIC_REPRESENTATION_ITEM()
RATIONAL_B_SPLINE_SURFACE(((1.,0.707106781186548,1.,0.707106781186548,1.),
(1.,0.707106781186547,1.,0.707106781186547,1.),(1.,0.707106781186548,1.,
0.707106781186548,1.),(1.,0.707106781186548,1.,0.707106781186548,1.)))
REPRESENTATION_ITEM('')
SURFACE()
);
#170=(
BOUNDED_SURFACE()
B_SPLINE_SURFACE(3,2,((#454,#455,#456,#457,#458),(#459,#460,#461,#462,#463),
(#464,#465,#466,#467,#468),(#469,#470,#471,#472,#473),(#474,#475,#476,#477,
#478),(#479,#480,#481,#482,#483),(#484,#485,#486,#487,#488)),
 .UNSPECIFIED.,.F.,.F.,.F.)
B_SPLINE_SURFACE_WITH_KNOTS((4,1,1,1,4),(3,2,3),(0.,1.50783389919249,3.14158769282543,
4.77534148645832,6.28317538565074),(0.,7.85398163397448,15.707963267949),
 .UNSPECIFIED.)
GEOMETRIC_REPRESENTATION_ITEM()
RATIONAL_B_SPLINE_SURFACE(((1.,0.707106781186548,1.,0.707106781186548,1.),
(0.999999999999999,0.707106781186547,0.999999999999999,0.707106781186547,
0.999999999999999),(1.,0.707106781186548,1.,0.707106781186548,1.),(1.,0.707106781186547,
1.,0.707106781186547,1.),(1.,0.707106781186548,1.,0.707106781186548,1.),
(1.,0.707106781186548,1.,0.707106781186548,1.),(1.,0.707106781186548,1.,
0.707106781186548,1.)))
REPRESENTATION_ITEM('')
SURFACE()
);
#171=(
BOUNDED_SURFACE()
B_SPLINE_SURFACE(3,2,((#489,#490,#491,#492,#493),(#494,#495,#496,#497,#498),
(#499,#500,#501,#502,#503),(#504,#505,#506,#507,#508),(#509,#510,#511,#512,
#513),(#514,#515,#516,#517,#518),(#519,#520,#521,#522,#523)),
 .UNSPECIFIED.,.F.,.F.,.F.)
B_SPLINE_SURFACE_WITH_KNOTS((4,1,1,1,4),(3,2,3),(0.,2.99980333300984,5.99960666601967,
8.99940999902951,26.),(0.,7.85398163397448,15.707963267949),
 .UNSPECIFIED.)
GEOMETRIC_REPRESENTATION_ITEM()
RATIONAL_B_SPLINE_SURFACE(((1.,0.707106781186548,1.,0.707106781186548,1.),
(1.,0.707106781186547,1.,0.707106781186547,1.),(1.,0.707106781186548,1.,
0.707106781186548,1.),(1.,0.707106781186548,1.,0.707106781186548,1.),(1.,
0.707106781186548,1.,0.707106781186548,1.),(0.999999999999999,0.707106781186547,
0.999999999999999,0.707106781186547,0.999999999999999),(1.,0.707106781186548,
1.,0.707106781186548,1.)))
REPRESENTATION_ITEM('')
SURFACE()
);
#172=SHAPE_DEFINITION_REPRESENTATION(#173,#190);
#173=PRODUCT_DEFINITION_SHAPE('Document','',#175);
#174=PRODUCT_DEFINITION_CONTEXT('3D Mechanical Parts',#179,'design');
#175=PRODUCT_DEFINITION('A','First version',#176,#174);
#176=PRODUCT_DEFINITION_FORMATION_WITH_SPECIFIED_SOURCE('A',
'First version',#181,.MADE.);
#177=PRODUCT_RELATED_PRODUCT_CATEGORY('tool','tool',(#181));
#178=APPLICATION_PROTOCOL_DEFINITION('Draft International Standard',
'automotive_design',1999,#179);
#179=APPLICATION_CONTEXT(
'data for automotive mechanical design processes');
#180=PRODUCT_CONTEXT('3D Mechanical Parts',#179,'mechanical');
#181=PRODUCT('Document','Document','Rhino converted to STEP',(#180));
#182=(
LENGTH_UNIT()
NAMED_UNIT(*)
SI_UNIT(.MILLI.,.METRE.)
);
#183=(
NAMED_UNIT(*)
PLANE_ANGLE_UNIT()
SI_UNIT($,.RADIAN.)
);
#184=DIMENSIONAL_EXPONENTS(0.,0.,0.,0.,0.,0.,0.);
#185=PLANE_ANGLE_MEASURE_WITH_UNIT(PLANE_ANGLE_MEASURE(0.01745329252),#183);
#186=(
CONVERSION_BASED_UNIT('DEGREES',#185)
NAMED_UNIT(#184)
PLANE_ANGLE_UNIT()
);
#187=(
NAMED_UNIT(*)
SI_UNIT($,.STERADIAN.)
SOLID_ANGLE_UNIT()
);
#188=UNCERTAINTY_MEASURE_WITH_UNIT(LENGTH_MEASURE(0.01),#182,
'DISTANCE_ACCURACY_VALUE',
'Maximum model space distance between geometric entities at asserted c
onnectivities');
#189=(
GEOMETRIC_REPRESENTATION_CONTEXT(3)
GLOBAL_UNCERTAINTY_ASSIGNED_CONTEXT((#188))
GLOBAL_UNIT_ASSIGNED_CONTEXT((#187,#186,#182))
REPRESENTATION_CONTEXT('ID1','3D')
);
#190=SHAPE_REPRESENTATION('Document',(#191,#194),#189);
#191=AXIS2_PLACEMENT_3D('',#201,#195,#196);
#192=AXIS2_PLACEMENT_3D('',#362,#197,$);
#193=AXIS2_PLACEMENT_3D('',#363,#198,$);
#194=AXIS2_PLACEMENT_3D('',#670,#199,#200);
#195=DIRECTION('',(0.,0.,1.));
#196=DIRECTION('',(1.,0.,0.));
#197=DIRECTION('',(-1.,0.,0.));
#198=DIRECTION('',(1.,0.,0.));
#199=DIRECTION('',(0.,0.,1.));
#200=DIRECTION('',(1.,0.,0.));
#201=CARTESIAN_POINT('',(0.,0.,0.));
#202=CARTESIAN_POINT('',(0.,130.,-3.));
#203=CARTESIAN_POINT('',(0.,127.,-3.));
#204=CARTESIAN_POINT('',(0.,127.,-5.51091059616309E-16));
#205=CARTESIAN_POINT('',(0.,127.,3.));
#206=CARTESIAN_POINT('',(0.,130.,3.));
#207=CARTESIAN_POINT('',(5.66659183653301,130.,-2.99643631866027));
#208=CARTESIAN_POINT('',(5.66659183653299,127.00356368134,-2.99643631866027));
#209=CARTESIAN_POINT('',(5.666591836533,127.00356368134,-5.50436421974427E-16));
#210=CARTESIAN_POINT('',(5.66659183653299,127.00356368134,2.99643631866027));
#211=CARTESIAN_POINT('',(5.66659183653301,130.,2.99643631866027));
#212=CARTESIAN_POINT('',(12.3330844293797,130.,-4.71058378654956));
#213=CARTESIAN_POINT('',(12.3330844293797,125.28941621345,-4.71058378654957));
#214=CARTESIAN_POINT('',(12.3330844293797,125.28941621345,-8.65320203447001E-16));
#215=CARTESIAN_POINT('',(12.3330844293797,125.28941621345,4.71058378654956));
#216=CARTESIAN_POINT('',(12.3330844293797,130.,4.71058378654956));
#217=CARTESIAN_POINT('',(19.9997470033011,130.,-5.02636188357583));
#218=CARTESIAN_POINT('',(19.9997470033011,124.973638116424,-5.02636188357582));
#219=CARTESIAN_POINT('',(19.9997470033011,124.973638116424,-9.2332769881161E-16));
#220=CARTESIAN_POINT('',(19.9997470033011,124.973638116424,5.02636188357582));
#221=CARTESIAN_POINT('',(19.9997470033011,130.,5.02636188357583));
#222=CARTESIAN_POINT('',(22.9998657462372,130.,-4.99176191138255));
#223=CARTESIAN_POINT('',(22.9998657462372,125.008238088618,-4.99176191138256));
#224=CARTESIAN_POINT('',(22.9998657462372,125.008238088618,-9.16971787032047E-16));
#225=CARTESIAN_POINT('',(22.9998657462372,125.008238088618,4.99176191138255));
#226=CARTESIAN_POINT('',(22.9998657462372,130.,4.99176191138255));
#227=CARTESIAN_POINT('',(24.9999514160328,130.,-5.00164761772349));
#228=CARTESIAN_POINT('',(24.9999514160328,124.998352382276,-5.00164761772349));
#229=CARTESIAN_POINT('',(24.9999514160328,124.998352382276,-9.18787761826208E-16));
#230=CARTESIAN_POINT('',(24.9999514160328,124.998352382276,5.00164761772349));
#231=CARTESIAN_POINT('',(24.9999514160328,130.,5.00164761772349));
#232=CARTESIAN_POINT('',(26.,130.,-5.));
#233=CARTESIAN_POINT('',(26.,125.,-5.));
#234=CARTESIAN_POINT('',(26.,125.,-9.18485099360515E-16));
#235=CARTESIAN_POINT('',(26.,125.,5.));
#236=CARTESIAN_POINT('',(26.,130.,5.));
#237=CARTESIAN_POINT('',(26.,130.,-5.));
#238=CARTESIAN_POINT('',(26.,125.,-5.));
#239=CARTESIAN_POINT('',(26.,125.,-9.18485099360515E-16));
#240=CARTESIAN_POINT('',(26.,125.,5.));
#241=CARTESIAN_POINT('',(26.,130.,5.));
#242=CARTESIAN_POINT('',(26.5026116402942,129.999691176676,-5.));
#243=CARTESIAN_POINT('',(27.130876190662,124.999305147521,-5.));
#244=CARTESIAN_POINT('',(27.130876190662,124.999305147521,-9.18485099360515E-16));
#245=CARTESIAN_POINT('',(27.130876190662,124.999305147521,5.));
#246=CARTESIAN_POINT('',(26.5026116402942,129.999691176676,5.));
#247=CARTESIAN_POINT('',(27.5496729846914,130.199766744374,-5.));
#248=CARTESIAN_POINT('',(29.4867642155555,125.449475174841,-5.));
#249=CARTESIAN_POINT('',(29.4867642155555,125.449475174841,-9.18485099360515E-16));
#250=CARTESIAN_POINT('',(29.4867642155555,125.449475174841,5.));
#251=CARTESIAN_POINT('',(27.5496729846914,130.199766744374,5.));
#252=CARTESIAN_POINT('',(28.908231980834,131.091750880144,-5.));
#253=CARTESIAN_POINT('',(32.5435219568764,127.456439480325,-5.));
#254=CARTESIAN_POINT('',(32.5435219568764,127.456439480325,-9.18485099360515E-16));
#255=CARTESIAN_POINT('',(32.5435219568764,127.456439480325,5.));
#256=CARTESIAN_POINT('',(28.908231980834,131.091750880144,5.));
#257=CARTESIAN_POINT('',(29.800241342649,132.450340337824,-5.));
#258=CARTESIAN_POINT('',(34.5505430209602,130.513265760103,-5.));
#259=CARTESIAN_POINT('',(34.5505430209602,130.513265760103,-9.18485099360515E-16));
#260=CARTESIAN_POINT('',(34.5505430209602,130.513265760103,5.));
#261=CARTESIAN_POINT('',(29.800241342649,132.450340337824,5.));
#262=CARTESIAN_POINT('',(30.0003067415667,133.497382102387,-5.));
#263=CARTESIAN_POINT('',(35.000690168525,132.86910973037,-5.));
#264=CARTESIAN_POINT('',(35.000690168525,132.86910973037,-9.18485099360515E-16));
#265=CARTESIAN_POINT('',(35.000690168525,132.86910973037,5.));
#266=CARTESIAN_POINT('',(30.0003067415667,133.497382102387,5.));
#267=CARTESIAN_POINT('',(30.,134.,-5.));
#268=CARTESIAN_POINT('',(35.,134.,-5.));
#269=CARTESIAN_POINT('',(35.,134.,-9.18485099360515E-16));
#270=CARTESIAN_POINT('',(35.,134.,5.));
#271=CARTESIAN_POINT('',(30.,134.,5.));
#272=CARTESIAN_POINT('',(30.,134.,-5.));
#273=CARTESIAN_POINT('',(35.,134.,-5.));
#274=CARTESIAN_POINT('',(35.,134.,-9.18485099360515E-16));
#275=CARTESIAN_POINT('',(35.,134.,5.));
#276=CARTESIAN_POINT('',(30.,134.,5.));
#277=CARTESIAN_POINT('',(29.9999999999999,134.666666666666,-5.));
#278=CARTESIAN_POINT('',(34.9999999999999,134.666666666666,-5.));
#279=CARTESIAN_POINT('',(35.,134.666666666667,-6.66133814775094E-16));
#280=CARTESIAN_POINT('',(35.,134.666666666667,4.99999999999999));
#281=CARTESIAN_POINT('',(30.,134.666666666667,5.));
#282=CARTESIAN_POINT('',(29.9999999999999,135.333333333333,-4.99999999999999));
#283=CARTESIAN_POINT('',(34.9999999999999,135.333333333333,-5.));
#284=CARTESIAN_POINT('',(35.,135.333333333333,-4.44089209850063E-16));
#285=CARTESIAN_POINT('',(35.,135.333333333333,5.));
#286=CARTESIAN_POINT('',(30.,135.333333333333,5.));
#287=CARTESIAN_POINT('',(30.,136.,-5.));
#288=CARTESIAN_POINT('',(35.,136.,-5.));
#289=CARTESIAN_POINT('',(35.,136.,-9.18485099360515E-16));
#290=CARTESIAN_POINT('',(35.,136.,5.));
#291=CARTESIAN_POINT('',(30.,136.,5.));
#292=CARTESIAN_POINT('',(30.,136.,-5.));
#293=CARTESIAN_POINT('',(35.,136.,-5.));
#294=CARTESIAN_POINT('',(35.,136.,-9.18485099360515E-16));
#295=CARTESIAN_POINT('',(35.,136.,5.));
#296=CARTESIAN_POINT('',(30.,136.,5.));
#297=CARTESIAN_POINT('',(29.9996911576751,136.502611616808,-5.));
#298=CARTESIAN_POINT('',(35.0000772105812,135.874347095798,-5.));
#299=CARTESIAN_POINT('',(35.0000772105812,135.874347095798,-9.18485099360515E-16));
#300=CARTESIAN_POINT('',(35.0000772105812,135.874347095798,5.));
#301=CARTESIAN_POINT('',(29.9996911576751,136.502611616808,5.));
#302=CARTESIAN_POINT('',(30.1997668494732,137.549673309308,-5.));
#303=CARTESIAN_POINT('',(34.9500582876317,135.612581672673,-5.));
#304=CARTESIAN_POINT('',(34.9500582876317,135.612581672673,-9.18485099360515E-16));
#305=CARTESIAN_POINT('',(34.9500582876317,135.612581672673,5.));
#306=CARTESIAN_POINT('',(30.1997668494732,137.549673309308,5.));
#307=CARTESIAN_POINT('',(31.0917510704775,138.9082321736,-5.));
#308=CARTESIAN_POINT('',(34.7270622323807,135.2729419566,-5.));
#309=CARTESIAN_POINT('',(34.7270622323807,135.2729419566,-9.18485099360515E-16));
#310=CARTESIAN_POINT('',(34.7270622323807,135.2729419566,5.));
#311=CARTESIAN_POINT('',(31.0917510704775,138.9082321736,5.));
#312=CARTESIAN_POINT('',(32.4503407068731,139.800241482829,-5.));
#313=CARTESIAN_POINT('',(34.3874148232818,135.049939629293,-5.));
#314=CARTESIAN_POINT('',(34.3874148232817,135.049939629293,-9.18485099360515E-16));
#315=CARTESIAN_POINT('',(34.3874148232818,135.049939629293,5.));
#316=CARTESIAN_POINT('',(32.4503407068731,139.800241482829,5.));
#317=CARTESIAN_POINT('',(33.497382204068,140.000306731729,-5.));
#318=CARTESIAN_POINT('',(34.1256544489832,134.999923317068,-5.));
#319=CARTESIAN_POINT('',(34.1256544489832,134.999923317068,-9.18485099360515E-16));
#320=CARTESIAN_POINT('',(34.1256544489832,134.999923317068,5.));
#321=CARTESIAN_POINT('',(33.497382204068,140.000306731729,5.));
#322=CARTESIAN_POINT('',(34.,140.,-5.));
#323=CARTESIAN_POINT('',(34.,135.,-5.));
#324=CARTESIAN_POINT('',(34.,135.,-9.18485099360515E-16));
#325=CARTESIAN_POINT('',(34.,135.,5.));
#326=CARTESIAN_POINT('',(34.,140.,5.));
#327=CARTESIAN_POINT('',(34.,140.,-5.));
#328=CARTESIAN_POINT('',(34.,135.,-5.));
#329=CARTESIAN_POINT('',(34.,135.,-9.18485099360515E-16));
#330=CARTESIAN_POINT('',(34.,135.,5.));
#331=CARTESIAN_POINT('',(34.,140.,5.));
#332=CARTESIAN_POINT('',(34.9999244954315,140.,-5.00164717182909));
#333=CARTESIAN_POINT('',(34.9999244954315,134.998352828171,-5.00164717182909));
#334=CARTESIAN_POINT('',(34.9999244954315,134.998352828171,-9.18787679916735E-16));
#335=CARTESIAN_POINT('',(34.9999244954315,134.998352828171,5.00164717182909));
#336=CARTESIAN_POINT('',(34.9999244954315,140.,5.00164717182909));
#337=CARTESIAN_POINT('',(36.9998013275603,140.,-4.99176414085457));
#338=CARTESIAN_POINT('',(36.9998013275603,135.008235859145,-4.99176414085457));
#339=CARTESIAN_POINT('',(36.9998013275603,135.008235859145,-9.16972196579413E-16));
#340=CARTESIAN_POINT('',(36.9998013275603,135.008235859145,4.99176414085457));
#341=CARTESIAN_POINT('',(36.9998013275603,140.,4.99176414085457));
#342=CARTESIAN_POINT('',(39.9996072586011,140.,-5.02635474926538));
#343=CARTESIAN_POINT('',(39.9996072586011,134.973645250735,-5.02635474926538));
#344=CARTESIAN_POINT('',(39.9996072586011,134.973645250735,-9.23326388260041E-16));
#345=CARTESIAN_POINT('',(39.9996072586011,134.973645250735,5.02635474926538));
#346=CARTESIAN_POINT('',(39.9996072586011,140.,5.02635474926538));
#347=CARTESIAN_POINT('',(47.6663370339143,140.,-4.71062341784428));
#348=CARTESIAN_POINT('',(47.6663370339143,135.289376582156,-4.71062341784428));
#349=CARTESIAN_POINT('',(47.6663370339143,135.289376582156,-8.65327483597735E-16));
#350=CARTESIAN_POINT('',(47.6663370339143,135.289376582156,4.71062341784428));
#351=CARTESIAN_POINT('',(47.6663370339143,140.,4.71062341784428));
#352=CARTESIAN_POINT('',(54.3331224368007,140.,-2.9964371175352));
#353=CARTESIAN_POINT('',(54.3331224368007,137.003562882465,-2.9964371175352));
#354=CARTESIAN_POINT('',(54.3331224368007,137.003562882465,-5.5043656872537E-16));
#355=CARTESIAN_POINT('',(54.3331224368007,137.003562882465,2.9964371175352));
#356=CARTESIAN_POINT('',(54.3331224368007,140.,2.9964371175352));
#357=CARTESIAN_POINT('',(60.,140.,-3.));
#358=CARTESIAN_POINT('',(60.,137.,-3.));
#359=CARTESIAN_POINT('',(60.,137.,-5.51091059616309E-16));
#360=CARTESIAN_POINT('',(60.,137.,3.));
#361=CARTESIAN_POINT('',(60.,140.,3.));
#362=CARTESIAN_POINT('',(0.,133.,-3.));
#363=CARTESIAN_POINT('',(60.,143.,-3.));
#364=CARTESIAN_POINT('',(0.,130.,3.));
#365=CARTESIAN_POINT('',(0.,133.,3.));
#366=CARTESIAN_POINT('',(0.,133.,1.83697019872103E-16));
#367=CARTESIAN_POINT('',(0.,133.,-3.));
#368=CARTESIAN_POINT('',(0.,130.,-3.));
#369=CARTESIAN_POINT('',(5.66659183653301,130.,2.99643631866027));
#370=CARTESIAN_POINT('',(5.66659183653302,132.99643631866,2.99643631866027));
#371=CARTESIAN_POINT('',(5.66659183653302,132.99643631866,1.83478807324809E-16));
#372=CARTESIAN_POINT('',(5.66659183653302,132.99643631866,-2.99643631866027));
#373=CARTESIAN_POINT('',(5.66659183653301,130.,-2.99643631866027));
#374=CARTESIAN_POINT('',(12.3330844293797,130.,4.71058378654956));
#375=CARTESIAN_POINT('',(12.3330844293797,134.71058378655,4.71058378654957));
#376=CARTESIAN_POINT('',(12.3330844293797,134.71058378655,2.88440067815667E-16));
#377=CARTESIAN_POINT('',(12.3330844293797,134.71058378655,-4.71058378654956));
#378=CARTESIAN_POINT('',(12.3330844293797,130.,-4.71058378654956));
#379=CARTESIAN_POINT('',(19.9997470033011,130.,5.02636188357583));
#380=CARTESIAN_POINT('',(19.9997470033011,135.026361883576,5.02636188357582));
#381=CARTESIAN_POINT('',(19.9997470033011,135.026361883576,3.0777589960387E-16));
#382=CARTESIAN_POINT('',(19.9997470033011,135.026361883576,-5.02636188357582));
#383=CARTESIAN_POINT('',(19.9997470033011,130.,-5.02636188357583));
#384=CARTESIAN_POINT('',(22.9998657462372,130.,4.99176191138255));
#385=CARTESIAN_POINT('',(22.9998657462371,134.991761911383,4.99176191138256));
#386=CARTESIAN_POINT('',(22.9998657462372,134.991761911383,3.05657262344016E-16));
#387=CARTESIAN_POINT('',(22.9998657462371,134.991761911383,-4.99176191138255));
#388=CARTESIAN_POINT('',(22.9998657462372,130.,-4.99176191138255));
#389=CARTESIAN_POINT('',(24.9999514160328,130.,5.00164761772349));
#390=CARTESIAN_POINT('',(24.9999514160328,135.001647617723,5.00164761772349));
#391=CARTESIAN_POINT('',(24.9999514160328,135.001647617723,3.06262587275403E-16));
#392=CARTESIAN_POINT('',(24.9999514160328,135.001647617723,-5.00164761772349));
#393=CARTESIAN_POINT('',(24.9999514160328,130.,-5.00164761772349));
#394=CARTESIAN_POINT('',(26.,130.,5.));
#395=CARTESIAN_POINT('',(26.,135.,5.));
#396=CARTESIAN_POINT('',(26.,135.,3.06161699786838E-16));
#397=CARTESIAN_POINT('',(26.,135.,-5.));
#398=CARTESIAN_POINT('',(26.,130.,-5.));
#399=CARTESIAN_POINT('',(26.,130.,5.));
#400=CARTESIAN_POINT('',(26.,135.,5.));
#401=CARTESIAN_POINT('',(26.,135.,3.06161699786838E-16));
#402=CARTESIAN_POINT('',(26.,135.,-5.));
#403=CARTESIAN_POINT('',(26.,130.,-5.));
#404=CARTESIAN_POINT('',(26.5026116402942,129.999691176676,5.));
#405=CARTESIAN_POINT('',(25.8743470899265,135.000077205831,5.));
#406=CARTESIAN_POINT('',(25.8743470899265,135.000077205831,3.06161699786838E-16));
#407=CARTESIAN_POINT('',(25.8743470899265,135.000077205831,-5.));
#408=CARTESIAN_POINT('',(26.5026116402942,129.999691176676,-5.));
#409=CARTESIAN_POINT('',(27.5496729846914,130.199766744374,5.));
#410=CARTESIAN_POINT('',(25.6125817538272,134.950058313907,5.));
#411=CARTESIAN_POINT('',(25.6125817538272,134.950058313907,3.06161699786838E-16));
#412=CARTESIAN_POINT('',(25.6125817538272,134.950058313907,-5.));
#413=CARTESIAN_POINT('',(27.5496729846914,130.199766744374,-5.));
#414=CARTESIAN_POINT('',(28.908231980834,131.091750880144,5.));
#415=CARTESIAN_POINT('',(25.2729420047915,134.727062279964,5.));
#416=CARTESIAN_POINT('',(25.2729420047915,134.727062279964,3.06161699786838E-16));
#417=CARTESIAN_POINT('',(25.2729420047915,134.727062279964,-5.));
#418=CARTESIAN_POINT('',(28.908231980834,131.091750880144,-5.));
#419=CARTESIAN_POINT('',(29.800241342649,132.450340337824,5.));
#420=CARTESIAN_POINT('',(25.0499396643377,134.387414915544,5.));
#421=CARTESIAN_POINT('',(25.0499396643377,134.387414915544,3.06161699786838E-16));
#422=CARTESIAN_POINT('',(25.0499396643377,134.387414915544,-5.));
#423=CARTESIAN_POINT('',(29.800241342649,132.450340337824,-5.));
#424=CARTESIAN_POINT('',(30.0003067415667,133.497382102387,5.));
#425=CARTESIAN_POINT('',(24.9999233146083,134.125654474403,5.));
#426=CARTESIAN_POINT('',(24.9999233146083,134.125654474403,3.06161699786838E-16));
#427=CARTESIAN_POINT('',(24.9999233146083,134.125654474403,-5.));
#428=CARTESIAN_POINT('',(30.0003067415667,133.497382102387,-5.));
#429=CARTESIAN_POINT('',(30.,134.,5.));
#430=CARTESIAN_POINT('',(25.,134.,5.));
#431=CARTESIAN_POINT('',(25.,134.,3.06161699786838E-16));
#432=CARTESIAN_POINT('',(25.,134.,-5.));
#433=CARTESIAN_POINT('',(30.,134.,-5.));
#434=CARTESIAN_POINT('',(30.,134.,5.));
#435=CARTESIAN_POINT('',(25.,134.,5.));
#436=CARTESIAN_POINT('',(25.,134.,3.06161699786838E-16));
#437=CARTESIAN_POINT('',(25.,134.,-5.));
#438=CARTESIAN_POINT('',(30.,134.,-5.));
#439=CARTESIAN_POINT('',(30.,134.666666666667,5.));
#440=CARTESIAN_POINT('',(25.,134.666666666667,5.));
#441=CARTESIAN_POINT('',(25.,134.666666666667,-2.16493489801906E-15));
#442=CARTESIAN_POINT('',(25.,134.666666666667,-5.));
#443=CARTESIAN_POINT('',(29.9999999999999,134.666666666666,-5.));
#444=CARTESIAN_POINT('',(30.,135.333333333333,5.));
#445=CARTESIAN_POINT('',(25.,135.333333333333,5.));
#446=CARTESIAN_POINT('',(25.,135.333333333333,-3.33066907387547E-15));
#447=CARTESIAN_POINT('',(24.9999999999999,135.333333333333,-5.));
#448=CARTESIAN_POINT('',(29.9999999999999,135.333333333333,-4.99999999999999));
#449=CARTESIAN_POINT('',(30.,136.,5.));
#450=CARTESIAN_POINT('',(25.,136.,5.));
#451=CARTESIAN_POINT('',(25.,136.,3.06161699786838E-16));
#452=CARTESIAN_POINT('',(25.,136.,-5.));
#453=CARTESIAN_POINT('',(30.,136.,-5.));
#454=CARTESIAN_POINT('',(30.,136.,5.));
#455=CARTESIAN_POINT('',(25.,136.,5.));
#456=CARTESIAN_POINT('',(25.,136.,3.06161699786838E-16));
#457=CARTESIAN_POINT('',(25.,136.,-5.));
#458=CARTESIAN_POINT('',(30.,136.,-5.));
#459=CARTESIAN_POINT('',(29.9996911576751,136.502611616808,5.));
#460=CARTESIAN_POINT('',(24.999305104769,137.130876137818,5.));
#461=CARTESIAN_POINT('',(24.9993051047691,137.130876137818,3.06161699786838E-16));
#462=CARTESIAN_POINT('',(24.999305104769,137.130876137818,-5.));
#463=CARTESIAN_POINT('',(29.9996911576751,136.502611616808,-5.));
#464=CARTESIAN_POINT('',(30.1997668494732,137.549673309308,5.));
#465=CARTESIAN_POINT('',(25.4494754113148,139.486764945942,5.));
#466=CARTESIAN_POINT('',(25.4494754113147,139.486764945942,3.06161699786838E-16));
#467=CARTESIAN_POINT('',(25.4494754113148,139.486764945942,-5.));
#468=CARTESIAN_POINT('',(30.1997668494732,137.549673309308,-5.));
#469=CARTESIAN_POINT('',(31.0917510704775,138.9082321736,5.));
#470=CARTESIAN_POINT('',(27.4564399085743,142.543522390599,5.));
#471=CARTESIAN_POINT('',(27.4564399085743,142.543522390599,3.06161699786838E-16));
#472=CARTESIAN_POINT('',(27.4564399085743,142.543522390599,-5.));
#473=CARTESIAN_POINT('',(31.0917510704775,138.9082321736,-5.));
#474=CARTESIAN_POINT('',(32.4503407068731,139.800241482829,5.));
#475=CARTESIAN_POINT('',(30.5132665904644,144.550543336366,5.));
#476=CARTESIAN_POINT('',(30.5132665904644,144.550543336366,3.06161699786838E-16));
#477=CARTESIAN_POINT('',(30.5132665904644,144.550543336366,-5.));
#478=CARTESIAN_POINT('',(32.4503407068731,139.800241482829,-5.));
#479=CARTESIAN_POINT('',(33.497382204068,140.000306731729,5.));
#480=CARTESIAN_POINT('',(32.8691099591528,145.00069014639,5.));
#481=CARTESIAN_POINT('',(32.8691099591528,145.00069014639,3.06161699786838E-16));
#482=CARTESIAN_POINT('',(32.8691099591528,145.00069014639,-5.));
#483=CARTESIAN_POINT('',(33.497382204068,140.000306731729,-5.));
#484=CARTESIAN_POINT('',(34.,140.,5.));
#485=CARTESIAN_POINT('',(34.,145.,5.));
#486=CARTESIAN_POINT('',(34.,145.,3.06161699786838E-16));
#487=CARTESIAN_POINT('',(34.,145.,-5.));
#488=CARTESIAN_POINT('',(34.,140.,-5.));
#489=CARTESIAN_POINT('',(34.,140.,5.));
#490=CARTESIAN_POINT('',(34.,145.,5.));
#491=CARTESIAN_POINT('',(34.,145.,3.06161699786838E-16));
#492=CARTESIAN_POINT('',(34.,145.,-5.));
#493=CARTESIAN_POINT('',(34.,140.,-5.));
#494=CARTESIAN_POINT('',(34.9999244954315,140.,5.00164717182909));
#495=CARTESIAN_POINT('',(34.9999244954315,145.001647171829,5.00164717182909));
#496=CARTESIAN_POINT('',(34.9999244954315,145.001647171829,3.06262559972245E-16));
#497=CARTESIAN_POINT('',(34.9999244954315,145.001647171829,-5.00164717182909));
#498=CARTESIAN_POINT('',(34.9999244954315,140.,-5.00164717182909));
#499=CARTESIAN_POINT('',(36.9998013275603,140.,4.99176414085457));
#500=CARTESIAN_POINT('',(36.9998013275603,144.991764140855,4.99176414085457));
#501=CARTESIAN_POINT('',(36.9998013275603,144.991764140855,3.05657398859804E-16));
#502=CARTESIAN_POINT('',(36.9998013275603,144.991764140855,-4.99176414085457));
#503=CARTESIAN_POINT('',(36.9998013275603,140.,-4.99176414085457));
#504=CARTESIAN_POINT('',(39.9996072586011,140.,5.02635474926538));
#505=CARTESIAN_POINT('',(39.9996072586011,145.026354749265,5.02635474926538));
#506=CARTESIAN_POINT('',(39.9996072586011,145.026354749265,3.07775462753347E-16));
#507=CARTESIAN_POINT('',(39.9996072586011,145.026354749265,-5.02635474926538));
#508=CARTESIAN_POINT('',(39.9996072586011,140.,-5.02635474926538));
#509=CARTESIAN_POINT('',(47.6663370339143,140.,4.71062341784428));
#510=CARTESIAN_POINT('',(47.6663370339142,144.710623417844,4.71062341784428));
#511=CARTESIAN_POINT('',(47.6663370339142,144.710623417844,2.88442494532578E-16));
#512=CARTESIAN_POINT('',(47.6663370339142,144.710623417844,-4.71062341784428));
#513=CARTESIAN_POINT('',(47.6663370339143,140.,-4.71062341784428));
#514=CARTESIAN_POINT('',(54.3331224368007,140.,2.9964371175352));
#515=CARTESIAN_POINT('',(54.3331224368007,142.996437117535,2.9964371175352));
#516=CARTESIAN_POINT('',(54.3331224368007,142.996437117535,1.8347885624179E-16));
#517=CARTESIAN_POINT('',(54.3331224368007,142.996437117535,-2.9964371175352));
#518=CARTESIAN_POINT('',(54.3331224368007,140.,-2.9964371175352));
#519=CARTESIAN_POINT('',(60.,140.,3.));
#520=CARTESIAN_POINT('',(60.,143.,3.));
#521=CARTESIAN_POINT('',(60.,143.,1.83697019872103E-16));
#522=CARTESIAN_POINT('',(60.,143.,-3.));
#523=CARTESIAN_POINT('',(60.,140.,-3.));
#524=CARTESIAN_POINT('',(0.,130.,3.));
#525=CARTESIAN_POINT('',(26.,130.,5.));
#526=CARTESIAN_POINT('',(30.,134.,5.));
#527=CARTESIAN_POINT('',(30.,136.,5.));
#528=CARTESIAN_POINT('',(34.,140.,5.));
#529=CARTESIAN_POINT('',(60.,140.,3.));
#530=CARTESIAN_POINT('',(0.,130.,-3.));
#531=CARTESIAN_POINT('',(26.,130.,-5.));
#532=CARTESIAN_POINT('',(30.,134.,-5.));
#533=CARTESIAN_POINT('',(30.,136.,-5.));
#534=CARTESIAN_POINT('',(34.,140.,-5.));
#535=CARTESIAN_POINT('',(60.,140.,-3.));
#536=CARTESIAN_POINT('',(0.,130.,3.));
#537=CARTESIAN_POINT('',(5.66659183653301,130.,2.99643631866027));
#538=CARTESIAN_POINT('',(12.3330844293797,130.,4.71058378654956));
#539=CARTESIAN_POINT('',(19.9997470033011,130.,5.02636188357583));
#540=CARTESIAN_POINT('',(22.9998657462372,130.,4.99176191138255));
#541=CARTESIAN_POINT('',(24.9999514160328,130.,5.00164761772349));
#542=CARTESIAN_POINT('',(26.,130.,5.));
#543=CARTESIAN_POINT('',(26.,130.,5.));
#544=CARTESIAN_POINT('',(26.,135.,5.));
#545=CARTESIAN_POINT('',(26.,135.,3.06161699786838E-16));
#546=CARTESIAN_POINT('',(26.,135.,-5.));
#547=CARTESIAN_POINT('',(26.,130.,-5.));
#548=CARTESIAN_POINT('',(0.,130.,3.));
#549=CARTESIAN_POINT('',(0.,127.,3.));
#550=CARTESIAN_POINT('',(0.,127.,-5.51091059616309E-16));
#551=CARTESIAN_POINT('',(0.,127.,-3.));
#552=CARTESIAN_POINT('',(0.,130.,-3.));
#553=CARTESIAN_POINT('',(26.,130.,5.));
#554=CARTESIAN_POINT('',(26.5026116402942,129.999691176676,5.));
#555=CARTESIAN_POINT('',(27.0051583599741,130.095719285032,5.));
#556=CARTESIAN_POINT('',(27.4723915651848,130.280837220211,5.));
#557=CARTESIAN_POINT('',(27.9786436277848,130.481414438318,5.));
#558=CARTESIAN_POINT('',(28.4434378043094,130.786582659231,5.));
#559=CARTESIAN_POINT('',(28.8284233182323,131.171569068745,5.));
#560=CARTESIAN_POINT('',(29.2134088321553,131.556555478259,5.));
#561=CARTESIAN_POINT('',(29.5185856834766,132.021360076373,5.));
#562=CARTESIAN_POINT('',(29.7191642937581,132.527611845693,5.));
#563=CARTESIAN_POINT('',(29.9042835138107,132.994844780228,5.));
#564=CARTESIAN_POINT('',(30.0003067415667,133.497382102387,5.));
#565=CARTESIAN_POINT('',(30.,134.,5.));
#566=CARTESIAN_POINT('',(30.,134.,5.));
#567=CARTESIAN_POINT('',(25.,134.,5.));
#568=CARTESIAN_POINT('',(25.,134.,3.06161699786838E-16));
#569=CARTESIAN_POINT('',(25.,134.,-5.));
#570=CARTESIAN_POINT('',(30.,134.,-5.));
#571=CARTESIAN_POINT('',(30.,134.,5.));
#572=CARTESIAN_POINT('',(30.,136.,5.));
#573=CARTESIAN_POINT('',(30.,136.,5.));
#574=CARTESIAN_POINT('',(25.,136.,5.));
#575=CARTESIAN_POINT('',(25.,136.,3.06161699786838E-16));
#576=CARTESIAN_POINT('',(25.,136.,-5.));
#577=CARTESIAN_POINT('',(30.,136.,-5.));
#578=CARTESIAN_POINT('',(30.,136.,5.));
#579=CARTESIAN_POINT('',(29.9996911576751,136.502611616808,5.));
#580=CARTESIAN_POINT('',(30.1997668494732,137.549673309308,5.));
#581=CARTESIAN_POINT('',(31.0917510704775,138.9082321736,5.));
#582=CARTESIAN_POINT('',(32.4503407068731,139.800241482829,5.));
#583=CARTESIAN_POINT('',(33.497382204068,140.000306731729,5.));
#584=CARTESIAN_POINT('',(34.,140.,5.));
#585=CARTESIAN_POINT('',(34.,140.,5.));
#586=CARTESIAN_POINT('',(34.,145.,5.));
#587=CARTESIAN_POINT('',(34.,145.,3.06161699786838E-16));
#588=CARTESIAN_POINT('',(34.,145.,-5.));
#589=CARTESIAN_POINT('',(34.,140.,-5.));
#590=CARTESIAN_POINT('',(34.,140.,5.));
#591=CARTESIAN_POINT('',(34.9999244954315,140.,5.00164717182909));
#592=CARTESIAN_POINT('',(36.9998013275603,140.,4.99176414085457));
#593=CARTESIAN_POINT('',(39.9996072586011,140.,5.02635474926538));
#594=CARTESIAN_POINT('',(47.6663370339143,140.,4.71062341784428));
#595=CARTESIAN_POINT('',(54.3331224368007,140.,2.9964371175352));
#596=CARTESIAN_POINT('',(60.,140.,3.));
#597=CARTESIAN_POINT('',(60.,140.,3.));
#598=CARTESIAN_POINT('',(60.,143.,3.));
#599=CARTESIAN_POINT('',(60.,143.,1.83697019872103E-16));
#600=CARTESIAN_POINT('',(60.,143.,-3.));
#601=CARTESIAN_POINT('',(60.,140.,-3.));
#602=CARTESIAN_POINT('',(0.,130.,-3.));
#603=CARTESIAN_POINT('',(5.66659183653301,130.,-2.99643631866027));
#604=CARTESIAN_POINT('',(12.3330844293797,130.,-4.71058378654956));
#605=CARTESIAN_POINT('',(19.9997470033011,130.,-5.02636188357583));
#606=CARTESIAN_POINT('',(22.9998657462372,130.,-4.99176191138255));
#607=CARTESIAN_POINT('',(24.9999514160328,130.,-5.00164761772349));
#608=CARTESIAN_POINT('',(26.,130.,-5.));
#609=CARTESIAN_POINT('',(26.,130.,-5.));
#610=CARTESIAN_POINT('',(26.,125.,-5.));
#611=CARTESIAN_POINT('',(26.,125.,-9.18485099360515E-16));
#612=CARTESIAN_POINT('',(26.,125.,5.));
#613=CARTESIAN_POINT('',(26.,130.,5.));
#614=CARTESIAN_POINT('',(0.,130.,-3.));
#615=CARTESIAN_POINT('',(0.,133.,-3.));
#616=CARTESIAN_POINT('',(0.,133.,1.83697019872103E-16));
#617=CARTESIAN_POINT('',(0.,133.,3.));
#618=CARTESIAN_POINT('',(0.,130.,3.));
#619=CARTESIAN_POINT('',(26.,130.,-5.));
#620=CARTESIAN_POINT('',(26.5026116402942,129.999691176676,-5.));
#621=CARTESIAN_POINT('',(27.0051583599741,130.095719285032,-5.));
#622=CARTESIAN_POINT('',(27.4723915651848,130.280837220211,-5.));
#623=CARTESIAN_POINT('',(27.9786436277848,130.481414438318,-5.));
#624=CARTESIAN_POINT('',(28.4434378043094,130.786582659231,-5.));
#625=CARTESIAN_POINT('',(28.8284233182323,131.171569068745,-5.));
#626=CARTESIAN_POINT('',(29.2134088321553,131.556555478259,-5.));
#627=CARTESIAN_POINT('',(29.5185856834766,132.021360076373,-5.));
#628=CARTESIAN_POINT('',(29.7191642937581,132.527611845693,-5.));
#629=CARTESIAN_POINT('',(29.9042835138107,132.994844780228,-5.));
#630=CARTESIAN_POINT('',(30.0003067415667,133.497382102387,-5.));
#631=CARTESIAN_POINT('',(30.,134.,-5.));
#632=CARTESIAN_POINT('',(30.,134.,-5.));
#633=CARTESIAN_POINT('',(35.,134.,-5.));
#634=CARTESIAN_POINT('',(35.,134.,-9.18485099360515E-16));
#635=CARTESIAN_POINT('',(35.,134.,5.));
#636=CARTESIAN_POINT('',(30.,134.,5.));
#637=CARTESIAN_POINT('',(30.,134.,-5.));
#638=CARTESIAN_POINT('',(29.9999999999999,134.666666666666,-5.));
#639=CARTESIAN_POINT('',(29.9999999999999,135.333333333333,-4.99999999999999));
#640=CARTESIAN_POINT('',(30.,136.,-5.));
#641=CARTESIAN_POINT('',(30.,136.,-5.));
#642=CARTESIAN_POINT('',(35.,136.,-5.));
#643=CARTESIAN_POINT('',(35.,136.,-9.18485099360515E-16));
#644=CARTESIAN_POINT('',(35.,136.,5.));
#645=CARTESIAN_POINT('',(30.,136.,5.));
#646=CARTESIAN_POINT('',(30.,136.,-5.));
#647=CARTESIAN_POINT('',(29.9996911576751,136.502611616808,-5.));
#648=CARTESIAN_POINT('',(30.1997668494732,137.549673309308,-5.));
#649=CARTESIAN_POINT('',(31.0917510704775,138.9082321736,-5.));
#650=CARTESIAN_POINT('',(32.4503407068731,139.800241482829,-5.));
#651=CARTESIAN_POINT('',(33.497382204068,140.000306731729,-5.));
#652=CARTESIAN_POINT('',(34.,140.,-5.));
#653=CARTESIAN_POINT('',(34.,140.,-5.));
#654=CARTESIAN_POINT('',(34.,135.,-5.));
#655=CARTESIAN_POINT('',(34.,135.,-9.18485099360515E-16));
#656=CARTESIAN_POINT('',(34.,135.,5.));
#657=CARTESIAN_POINT('',(34.,140.,5.));
#658=CARTESIAN_POINT('',(34.,140.,-5.));
#659=CARTESIAN_POINT('',(34.9999244954315,140.,-5.00164717182909));
#660=CARTESIAN_POINT('',(36.9998013275603,140.,-4.99176414085457));
#661=CARTESIAN_POINT('',(39.9996072586011,140.,-5.02635474926538));
#662=CARTESIAN_POINT('',(47.6663370339143,140.,-4.71062341784428));
#663=CARTESIAN_POINT('',(54.3331224368007,140.,-2.9964371175352));
#664=CARTESIAN_POINT('',(60.,140.,-3.));
#665=CARTESIAN_POINT('',(60.,140.,-3.));
#666=CARTESIAN_POINT('',(60.,137.,-3.));
#667=CARTESIAN_POINT('',(60.,137.,-5.51091059616309E-16));
#668=CARTESIAN_POINT('',(60.,137.,3.));
#669=CARTESIAN_POINT('',(60.,140.,3.));
#670=CARTESIAN_POINT('',(0.,0.,0.));
ENDSEC;
END-ISO-10303-21;
